<Server request>

Specification of Spectrum:
 - scaling: minmax
 - unit: Queried unit
 - resolution: 0.05
 - buffer: [74, 206, 166, 211, 232, 70, 115, 145, 161, 74, 129, 57, 3, 71, 200, 28, 75, 82, 205, 231, 62, 165, 103, 35, 201, 47, 55, 173, 206, 61, 247, 202]
 - device: MacBook Air 2020
 - description: Light as air
 - date: 1618349392
 - channelNr: 2

<Server request>

Specification of Spectrum:
 - scaling: minmax
 - unit: Queried unit
 - resolution: 0.05
 - buffer: [57, 94, 195, 98, 89, 13, 165, 245, 167, 71, 48, 158, 197, 69, 2, 48, 58, 164, 214, 115, 253, 150, 249, 201, 102, 236, 133, 193, 171, 180, 5, 110]
 - device: Samsung S21
 - description: New arrival
 - date: 1618348421
 - channelNr: 1

<Server request>

Specification of Spectrum:
 - scaling: minmax
 - unit: Queried unit
 - resolution: 0.05
 - buffer: [64, 179, 15, 160, 96, 68, 200, 70, 198, 31, 10, 48, 119, 245, 255, 120, 0, 236, 88, 54, 167, 201, 140, 122, 58, 18, 177, 11, 181, 189, 96, 147]
 - device: iPhone XR
 - description: White pearl
 - date: 1618349641
 - channelNr: 21

<Server request>

Specification of Spectrum:
 - scaling: minmax
 - unit: Queried unit
 - resolution: 0.05
 - buffer: [152, 0, 48, 211, 48, 40, 11, 69, 43, 62, 26, 107, 90, 12, 130, 36, 55, 18, 243, 80, 230, 24, 44, 94, 216, 120, 47, 171, 126, 83, 226, 31]
 - device: iPhone XR
 - description: White pearl
 - date: 1618349641
 - channelNr: 21

<Server request>

Specification of Spectrum:
 - scaling: minmax
 - unit: Queried unit
 - resolution: 0.05
 - buffer: [41, 32, 105, 136, 41, 199, 8, 41, 193, 14, 39, 27, 229, 240, 145, 200, 126, 89, 151, 249, 3, 176, 32, 129, 222, 135, 16, 39, 171, 153, 121, 11]
 - device: iPhone XR
 - description: White pearl
 - date: 1618349641
 - channelNr: 21

<Server request>

Specification of Spectrum:
 - scaling: minmax
 - unit: Queried unit
 - resolution: 0.05
 - buffer: [77, 181, 128, 256, 138, 152, 75, 113, 82, 154, 11, 204, 121, 44, 194, 136, 67, 127, 165, 246, 242, 46, 150, 209, 18, 167, 76, 105, 42, 158, 2, 19]
 - device: iPhone XR
 - description: White pearl
 - date: 1618349641
 - channelNr: 21

